
[

{    
 
      "month":"JAN",
      "date":"05",
      "title":"enrollment"
     
      
 },
 {    
 
      "month":"JAN",
      "date":"24",
      "title":"Orientation programme for new entrants"
     
      
 },
 {    
 
      "month":"FEB",
      "date":"20",
      "title":"Last date for course addition/deletion"
     
      
 },
 
 {    
 
      "month":"JAN",
      "date":"24",
      "title":"Orientation programme for new entrants"
     
      
 },
 
 {    
 
    "month":"JAN",
      "date":"04",
      "title":"admission"
      
      
 },
     
 {
   "month":"SEPT",
      "date":"02",
      "title":"Mid Term Examination- (MTE-I)"
 },
 
 {    
 
    "month":"OCT",
      "date":"12",
      "title":"Mid Term Examination-II (MTE-II)"
      
      
 },
 {
  "month":"NOV",
      "date":"04",
      "title":"Mid Term Break (MTE-II)"
      
      
 },
 
 {
  "month":"NOV",
      "date":"24",
      "title":"End Term Examinations (ETE)"
      
      
 },
 {
  "month":"DEC",
      "date":"03",
      "title":"Pre-registration of courses for next semester"
      
      
 },
 {
  "month":"DEC",
      "date":"03",
      "title":"Ph.D. admission result declaration"
      
      
 }
 
 ]